…
``` r
big_set %>% # highest to lowest valence
  arrange(desc(valence))
```

    ## # A tibble: 3,006 × 19
    ##     ...1 dance  mode energy   key loudness speech  acous instrum   live valence tempo
    ##    <dbl> <dbl> <dbl>  <dbl> <dbl>    <dbl>  <dbl>  <dbl>   <dbl>  <dbl>   <dbl> <dbl>
    ##  1  1188 0.812     1  0.644     0   -10.8  0.0493 0.0877 7.85e-1 0.0563   0.989 140. 
    ##  2  2066 0.638     1  0.884     4    -4.76 0.0322 0.652  9.47e-1 0.345    0.988 146. 
    ##  3  2166 0.764     1  0.777     2    -9.56 0.0429 0.863  1.67e-2 0.0284   0.987 125. 
    ##  4   346 0.551     1  0.686     4   -12.0  0.0536 0.346  0       0.33     0.982  71.0
    ##  5   704 0.697     1  0.809     9    -8.20 0.0302 0.114  5.21e-4 0.183    0.98  126. 
    ##  6  2620 0.809     1  0.518    10    -8.72 0.0581 0.959  7.92e-1 0.0863   0.98  115. 
    ##  7  2327 0.819     1  0.637     2    -8.56 0.0465 0.132  5.71e-1 0.182    0.978 123. 
    ##  8  1641 0.834     0  0.737     8    -7.51 0.0332 0.144  9.34e-1 0.153    0.977 108. 
    ##  9   531 0.818     1  0.728    10    -8.33 0.0314 0.232  6.42e-2 0.251    0.975 113. 
    ## 10  1057 0.63      1  0.863     4   -12.1  0.0459 0.433  8.9 e-1 0.0616   0.975 133. 
    ## # … with 2,996 more rows, and 7 more variables: duration_(ms) <dbl>, id_check <chr>,
    ## #   popularity <dbl>, name <chr>, artist <chr>, album <chr>, id <chr>
…
``` r
# predict and fit 
pred <- predict(reg3, oos_edited)
pred_oos <- bind_cols(oos_edited, pred)
```

    ## New names:
    ## * NA -> ...21

``` r
pred_oos %>%
  select(c(...21, valence))
```

    ## # A tibble: 110 × 2
    ##    ...21 valence
    ##    <dbl>   <dbl>
    ##  1  38.6    47.8
    ##  2  70.7    60.9
    ##  3  40.8    38.5
    ##  4  58.5    89.8
    ##  5  63.0    96.2
    ##  6  61.3    71.5
    ##  7  50.0    53.2
    ##  8  69.8    89.2
    ##  9  63.5    80.6
    ## 10  59.2    89.7
    ## # … with 100 more rows
